{
  "gradualProb": {
    "possibleMaps": 1,
    "normalizePow": 1,
    "nodes": 10000,
    "avgDeg": 20,
    "sources": 10,
    "falseEdges": 0.6,
    "smooth": 20,
    "fix": 0,
    "loopsInNodesPrecents": 300,
    "extraPrint": true,
    "directory": "data//",
    "path": "KAKI.txt",
    "pathArray": ["soc-brightkite.mtx", "soc-slashdot.mtx"],
    "plotDir": "plots/2.9/",
    "relevantGraphs": ["fb-pages-media.edges", "soc-brightkite.mtx", "soc-epinions.mtx",
    "soc-gemsec-HU.edges", "soc-sign-Slashdot081106.mtx", "deezer_europe_edges.txt"],
    "relevantSeeds": [25, 200, 50, 150, 25, 60],
    "correntGraph": 5,
    "threads": 8,
    "parallel_batch": 40,
    "temp": ["fb-pages-media.edges", "soc-brightkite.mtx", "soc-epinions.mtx",
    "soc-gemsec-HU.edges", "soc-loc-brightkite.edges", "soc-sign-epinions.mtx",
    "soc-sign-Slashdot081106.mtx", "soc-slashdot.mtx", "soc-slashdot-trust-all.edges",
    "youtube.ungraph.txt", "Gowalla_edges.txt", "deezer_europe_edges.txt"]
  }
}